{
    "KPackageStructure": "KSysguard/SensorFace",
    "KPlugin": {
        "Authors": [
            {
                "Email": "mart@kde.org",
                "Name": "Marco Martin",
                "Name[ar]": "Marco Martin",
                "Name[ast]": "Marco Martin",
                "Name[az]": "Marco Martin",
                "Name[bg]": "Marco Martin",
                "Name[ca@valencia]": "Marco Martin",
                "Name[ca]": "Marco Martin",
                "Name[cs]": "Marco Martin",
                "Name[de]": "Marco Martin",
                "Name[en_GB]": "Marco Martin",
                "Name[eo]": "Marco Martin",
                "Name[es]": "Marco Martin",
                "Name[et]": "Marco Martin",
                "Name[eu]": "Marco Martin",
                "Name[fi]": "Marco Martin",
                "Name[fr]": "Marco Martin",
                "Name[gl]": "Marco Martin",
                "Name[he]": "מרקו מרטין",
                "Name[hu]": "Marco Martin",
                "Name[ia]": "Marco Martin",
                "Name[it]": "Marco Martin",
                "Name[ka]": "მაკრო მარტინი",
                "Name[ko]": "Marco Martin",
                "Name[lt]": "Marco Martin",
                "Name[nl]": "Marco Martin",
                "Name[nn]": "Marco Martin",
                "Name[pa]": "ਮਾਰਕੋ ਮਾਰਟਿਨ",
                "Name[pl]": "Marco Martin",
                "Name[pt]": "Marco Martin",
                "Name[pt_BR]": "Marco Martin",
                "Name[ro]": "Marco Martin",
                "Name[ru]": "Marco Martin",
                "Name[sk]": "Marco Martin",
                "Name[sl]": "Marco Martin",
                "Name[sv]": "Marco Martin",
                "Name[tr]": "Marco Martin",
                "Name[uk]": "Marco Martin",
                "Name[vi]": "Marco Martin",
                "Name[x-test]": "xxMarco Martinxx",
                "Name[zh_CN]": "Marco Martin",
                "Name[zh_TW]": "Marco Martin"
            }
        ],
        "Icon": "office-chart-line",
        "Id": "org.kde.ksysguard.linechart",
        "License": "LGPLv2+",
        "Name": "Line Chart",
        "Name[bg]": "Линейна графика",
        "Name[ca@valencia]": "Diagrama de línies",
        "Name[ca]": "Diagrama de línies",
        "Name[cs]": "Čarový graf",
        "Name[de]": "Liniendiagramm",
        "Name[en_GB]": "Line Chart",
        "Name[eo]": "Linia Diagramo",
        "Name[es]": "Gráfico de líneas",
        "Name[eu]": "Lerro-diagrama",
        "Name[fi]": "Viivakaavio",
        "Name[fr]": "Diagramme en lignes",
        "Name[gl]": "Gráfico de liñas",
        "Name[he]": "תרשים קו",
        "Name[hu]": "Vonaldiagram",
        "Name[ia]": "Diagramma a linea",
        "Name[it]": "Grafico a linee",
        "Name[ka]": "ხაზოვანი გრაფიკები",
        "Name[ko]": "꺾은선형 차트",
        "Name[lt]": "Linijinė diagrama",
        "Name[nl]": "Lijngrafiek",
        "Name[nn]": "Linjediagram",
        "Name[pa]": "ਲਾਈਨ ਚਾਰਟ",
        "Name[pl]": "Wykres liniowy",
        "Name[ru]": "Линейная диаграмма",
        "Name[sk]": "Čiarový graf",
        "Name[sl]": "Črtni grafikon",
        "Name[tr]": "Çizgi Grafiği",
        "Name[uk]": "Лінійна діаграма",
        "Name[x-test]": "xxLine Chartxx",
        "Name[zh_CN]": "折线图",
        "Name[zh_TW]": "線條圖",
        "Version": "1.0",
        "Website": "https://kde.org"
    },
    "X-KDE-ParentApp": "org.kde.plasmashell"
}
